module gitlab.com/dovgopoly/register-contract

go 1.18

require github.com/ethereum/go-ethereum v1.10.17

require (
	github.com/StackExchange/wmi v0.0.0-20180116203802-5d049714c4a6 // indirect
	github.com/btcsuite/btcd/btcec/v2 v2.1.3 // indirect
	github.com/deckarep/golang-set v1.8.0 // indirect
	github.com/decred/dcrd/dcrec/secp256k1/v4 v4.0.1 // indirect
	github.com/go-ole/go-ole v1.2.1 // indirect
	github.com/go-stack/stack v1.8.0 // indirect
	github.com/google/uuid v1.2.0 // indirect
	github.com/gorilla/websocket v1.4.2 // indirect
	github.com/rjeczalik/notify v0.9.1 // indirect
	github.com/shirou/gopsutil v3.21.4-0.20210419000835-c7a38de76ee5+incompatible // indirect
	github.com/tklauser/go-sysconf v0.3.5 // indirect
	github.com/tklauser/numcpus v0.2.2 // indirect
	golang.org/x/crypto v0.0.0-20220411220226-7b82a4e95df4 // indirect
	golang.org/x/sys v0.0.0-20220422013727-9388b58f7150 // indirect
	gopkg.in/natefinch/npipe.v2 v2.0.0-20160621034901-c1b8fa8bdcce // indirect
)
